{
    "name": "MachinMachines.SpriteSlicer.Editor",
    "rootNamespace": "",
    "references": [
        "GUID:6d8c5775494434b4291627879921cbe0"
    ],
    "includePlatforms": [
        "Editor"
    ],
    "excludePlatforms": [],
    "allowUnsafeCode": false,
    "overrideReferences": false,
    "precompiledReferences": [],
    "autoReferenced": true,
    "defineConstraints": [],
    "versionDefines": [],
    "noEngineReferences": false
}